<?xml version="1.0" encoding="UTF-8"?>
<svg width="362px" height="112px" viewBox="0 0 362 112" version="1.1" xmlns="http://www.w3.org/2000/svg" xmlns:xlink="http://www.w3.org/1999/xlink">
    <!-- Generator: Sketch 55.1 (78136) - https://sketchapp.com -->
    <title>Group 6</title>
    <desc>Created with Sketch.</desc>
    <g id="Page-1" stroke="none" stroke-width="1" fill="none" fill-rule="evenodd">
        <g id="MiniV_Website" transform="translate(-351.000000, -3213.000000)">
            <g id="team" transform="translate(0.000000, 2515.000000)">
                <g id="Group-6" transform="translate(352.000000, 699.000000)">
                    <rect id="cell" stroke="#6E739A" fill="#0A1834" x="0" y="0" width="360" height="110" rx="10"></rect>
                    <g id="Calendar1" transform="translate(24.000000, 24.000000)">
                        <rect id="Rectangle" fill="#FFFFFF" x="0" y="0" width="60" height="62" rx="3"></rect>
                        <text id="1pm" font-family="Anton-Regular, Anton" font-size="24" font-weight="normal" line-spacing="28.8" fill="#171E5A">
                            <tspan x="5.2020198" y="42.303833">1pm</tspan>
                        </text>
                        <path d="M2,7.10542736e-15 L58.3960396,7.10542736e-15 C59.5006091,1.08267404e-14 60.3960396,0.8954305 60.3960396,2 L60.3960396,19.8 L0,19.8 L0,2 C-5.7935996e-16,0.8954305 0.8954305,7.30833348e-15 2,7.10542736e-15 Z" id="Rectangle" fill="#FF5E73"></path>
                        <text id="Thu" font-family="SourceSansPro-SemiBold, Source Sans Pro" font-size="13.2" font-weight="500" line-spacing="15.6" fill="#FFFFFF">
                            <tspan x="13.2300003" y="14.3452209">Thu</tspan>
                        </text>
                    </g>
                    <text id="Event" font-family="SourceSansPro-SemiBold, Source Sans Pro" font-size="18" font-weight="500" line-spacing="22" fill="#FFB83E">
                        <tspan x="100" y="37">Event</tspan>
                    </text>
                    <text id="Mini-V-Show-&amp;-Tell" font-family="SourceSansPro-SemiBold, Source Sans Pro" font-size="22" font-weight="500" line-spacing="26" fill="#FFFFFF">
                        <tspan x="100" y="63">Mini-V Show &amp; Tell</tspan>
                    </text>
                    <text id="Room-15-or-Join-via" font-family="SourceSansPro-Regular, Source Sans Pro" font-size="18" font-weight="normal" line-spacing="22" fill="#FFFFFF">
                        <tspan x="100" y="87">Room 15 or Join via WebEx</tspan>
                    </text>
                </g>
            </g>
        </g>
    </g>
</svg>